<svg width="25" height="24" viewBox="0 0 25 24" fill="none" xmlns="http://www.w3.org/2000/svg">
<g clip-path="url(#clip0)">
<path d="M17.882 0H6.88205C5.15895 0.00264482 3.50719 0.688314 2.28878 1.90673C1.07036 3.12514 0.384694 4.77691 0.38205 6.5L0.38205 17.5C0.384694 19.2231 1.07036 20.8749 2.28878 22.0933C3.50719 23.3117 5.15895 23.9974 6.88205 24H17.882C19.6051 23.9974 21.2569 23.3117 22.4753 22.0933C23.6937 20.8749 24.3794 19.2231 24.382 17.5V6.5C24.3794 4.77691 23.6937 3.12514 22.4753 1.90673C21.2569 0.688314 19.6051 0.00264482 17.882 0V0ZM12.382 17.5C11.2943 17.5 10.2309 17.1774 9.32641 16.5731C8.42194 15.9687 7.71699 15.1098 7.30071 14.1048C6.88443 13.0998 6.77551 11.9939 6.98773 10.927C7.19995 9.86011 7.72377 8.8801 8.49296 8.11091C9.26215 7.34172 10.2422 6.8179 11.3091 6.60568C12.3759 6.39346 13.4818 6.50238 14.4868 6.91866C15.4918 7.33494 16.3508 8.03989 16.9551 8.94436C17.5595 9.84883 17.882 10.9122 17.882 12C17.882 13.4587 17.3026 14.8576 16.2711 15.8891C15.2397 16.9205 13.8407 17.5 12.382 17.5ZM18.882 6.5C18.5854 6.5 18.2954 6.41203 18.0487 6.2472C17.802 6.08238 17.6098 5.84811 17.4962 5.57403C17.3827 5.29994 17.353 4.99834 17.4109 4.70736C17.4688 4.41639 17.6116 4.14912 17.8214 3.93934C18.0312 3.72956 18.2984 3.5867 18.5894 3.52882C18.8804 3.47094 19.182 3.50065 19.4561 3.61418C19.7302 3.72771 19.9644 3.91997 20.1293 4.16664C20.2941 4.41332 20.382 4.70333 20.382 5C20.382 5.39782 20.224 5.77936 19.9427 6.06066C19.6614 6.34196 19.2799 6.5 18.882 6.5Z" fill="#C55171"/>
</g>
<defs>
<clipPath id="clip0">
<rect x="0.38205" width="24" height="24" fill="white"/>
</clipPath>
</defs>
</svg>
