<svg width="82" height="96" viewBox="0 0 82 96" fill="none" xmlns="http://www.w3.org/2000/svg">
<path d="M56.375 45.3803L25.625 27.6478" stroke="#FFA903" stroke-width="5" stroke-linecap="round" stroke-linejoin="round"/>
<path d="M71.75 67.9303V40.597C71.7488 39.3987 71.4324 38.2218 70.8328 37.1843C70.2331 36.1468 69.3711 35.2853 68.3333 34.6862L44.4167 21.0195C43.3779 20.4197 42.1995 20.104 41 20.104C39.8005 20.104 38.6221 20.4197 37.5833 21.0195L13.6667 34.6862C12.6289 35.2853 11.7669 36.1468 11.1672 37.1843C10.5676 38.2218 10.2512 39.3987 10.25 40.597V67.9303C10.2512 69.1286 10.5676 70.3056 11.1672 71.343C11.7669 72.3805 12.6289 73.242 13.6667 73.8412L37.5833 87.5078C38.6221 88.1076 39.8005 88.4233 41 88.4233C42.1995 88.4233 43.3779 88.1076 44.4167 87.5078L68.3333 73.8412C69.3711 73.242 70.2331 72.3805 70.8328 71.343C71.4324 70.3056 71.7488 69.1286 71.75 67.9303Z" stroke="#FFA903" stroke-width="5" stroke-linecap="round" stroke-linejoin="round"/>
<path d="M11.1725 37.0436L41 54.2978L70.8275 37.0436" stroke="#FFA903" stroke-width="5" stroke-linecap="round" stroke-linejoin="round"/>
<path d="M41 88.7037V54.2637" stroke="#FFA903" stroke-width="5" stroke-linecap="round" stroke-linejoin="round"/>
<path d="M41 12.2637C57.5685 12.2637 71 10.249 71 7.76367C71 5.27839 57.5685 3.26367 41 3.26367C24.4315 3.26367 11 5.27839 11 7.76367C11 10.249 24.4315 12.2637 41 12.2637Z" stroke="#FFA903" stroke-width="5" stroke-linecap="round" stroke-linejoin="round"/>
</svg>
